what,kind,bundleId,bundleVersion,description,time
activated,workbench,org.eclipse.ui.workbench,3.6.1.M20100826-1330,"",1324630298178
executed,command,org.eclipse.ui.workbench.texteditor,3.6.1.r361_v20100714-0800,"org.eclipse.ui.edit.text.goto.lineEnd",1324630308146
executed,command,org.eclipse.ui,3.6.1.M20100826-1330,"org.eclipse.ui.file.save",1324630309256
executed,command,org.eclipse.ui.workbench.texteditor,3.6.1.r361_v20100714-0800,"org.eclipse.ui.edit.text.select.lineStart",1324630310459
executed,command,org.eclipse.ui.workbench.texteditor,3.6.1.r361_v20100714-0800,"org.eclipse.ui.edit.text.goto.lineEnd",1324630310881
deactivated,workbench,org.eclipse.ui.workbench,3.6.1.M20100826-1330,"",1324630312365
activated,workbench,org.eclipse.ui.workbench,3.6.1.M20100826-1330,"",1324630350146
executed,command,org.eclipse.ui,3.6.1.M20100826-1330,"org.eclipse.ui.file.save",1324630357942
deactivated,workbench,org.eclipse.ui.workbench,3.6.1.M20100826-1330,"",1324630359021
activated,workbench,org.eclipse.ui.workbench,3.6.1.M20100826-1330,"",1324630368645
executed,command,org.eclipse.ui,3.6.1.M20100826-1330,"org.eclipse.ui.file.save",1324630371614
deactivated,workbench,org.eclipse.ui.workbench,3.6.1.M20100826-1330,"",1324630372958
activated,workbench,org.eclipse.ui.workbench,3.6.1.M20100826-1330,"",1324630413207
executed,command,org.eclipse.ui,3.6.1.M20100826-1330,"org.eclipse.ui.file.save",1324630423332
deactivated,workbench,org.eclipse.ui.workbench,3.6.1.M20100826-1330,"",1324630423832
activated,workbench,org.eclipse.ui.workbench,3.6.1.M20100826-1330,"",1324630424629
executed,command,org.eclipse.ui.workbench.texteditor,3.6.1.r361_v20100714-0800,"org.eclipse.ui.edit.text.goto.lineEnd",1324630425504
executed,command,org.eclipse.ui,3.6.1.M20100826-1330,"org.eclipse.ui.file.save",1324630426363
deactivated,workbench,org.eclipse.ui.workbench,3.6.1.M20100826-1330,"",1324630426723
activated,workbench,org.eclipse.ui.workbench,3.6.1.M20100826-1330,"",1324630432051
executed,command,org.eclipse.ui.workbench.texteditor,3.6.1.r361_v20100714-0800,"org.eclipse.ui.edit.text.goto.lineEnd",1324630434863
executed,command,org.eclipse.ui.workbench.texteditor,3.6.1.r361_v20100714-0800,"org.eclipse.ui.edit.text.select.lineStart",1324630435176
executed,command,org.eclipse.ui.workbench.texteditor,3.6.1.r361_v20100714-0800,"org.eclipse.ui.edit.text.scroll.lineDown",1324630435926
executed,command,org.eclipse.ui.workbench.texteditor,3.6.1.r361_v20100714-0800,"org.eclipse.ui.edit.text.scroll.lineDown",1324630436426
executed,command,org.eclipse.ui.workbench.texteditor,3.6.1.r361_v20100714-0800,"org.eclipse.ui.edit.text.scroll.lineDown",1324630436457
executed,command,org.eclipse.ui.workbench.texteditor,3.6.1.r361_v20100714-0800,"org.eclipse.ui.edit.text.scroll.lineDown",1324630436488
executed,command,org.eclipse.ui.workbench.texteditor,3.6.1.r361_v20100714-0800,"org.eclipse.ui.edit.text.scroll.lineDown",1324630436520
executed,command,org.eclipse.ui.workbench.texteditor,3.6.1.r361_v20100714-0800,"org.eclipse.ui.edit.text.scroll.lineDown",1324630436551
executed,command,org.eclipse.ui.workbench.texteditor,3.6.1.r361_v20100714-0800,"org.eclipse.ui.edit.text.scroll.lineDown",1324630436598
executed,command,org.eclipse.ui.workbench.texteditor,3.6.1.r361_v20100714-0800,"org.eclipse.ui.edit.text.scroll.lineDown",1324630436629
executed,command,org.eclipse.ui.workbench.texteditor,3.6.1.r361_v20100714-0800,"org.eclipse.ui.edit.text.scroll.lineDown",1324630436660
executed,command,org.eclipse.ui.workbench.texteditor,3.6.1.r361_v20100714-0800,"org.eclipse.ui.edit.text.scroll.lineDown",1324630436691
executed,command,org.eclipse.ui.workbench.texteditor,3.6.1.r361_v20100714-0800,"org.eclipse.ui.edit.text.scroll.lineDown",1324630436723
executed,command,org.eclipse.ui.workbench.texteditor,3.6.1.r361_v20100714-0800,"org.eclipse.ui.edit.text.scroll.lineDown",1324630436754
executed,command,org.eclipse.ui.workbench.texteditor,3.6.1.r361_v20100714-0800,"org.eclipse.ui.edit.text.scroll.lineDown",1324630436785
executed,command,org.eclipse.ui.workbench.texteditor,3.6.1.r361_v20100714-0800,"org.eclipse.ui.edit.text.scroll.lineDown",1324630436816
executed,command,org.eclipse.ui.workbench.texteditor,3.6.1.r361_v20100714-0800,"org.eclipse.ui.edit.text.scroll.lineDown",1324630437301
executed,command,org.eclipse.ui.workbench.texteditor,3.6.1.r361_v20100714-0800,"org.eclipse.ui.edit.text.scroll.lineDown",1324630437551
executed,command,org.eclipse.ui.workbench.texteditor,3.6.1.r361_v20100714-0800,"org.eclipse.ui.edit.text.scroll.lineDown",1324630437754
executed,command,org.eclipse.ui.workbench.texteditor,3.6.1.r361_v20100714-0800,"org.eclipse.ui.edit.text.scroll.lineDown",1324630437973
executed,command,org.eclipse.ui.workbench.texteditor,3.6.1.r361_v20100714-0800,"org.eclipse.ui.edit.text.scroll.lineDown",1324630438473
executed,command,org.eclipse.ui.workbench.texteditor,3.6.1.r361_v20100714-0800,"org.eclipse.ui.edit.text.scroll.lineDown",1324630438504
executed,command,org.eclipse.ui.workbench.texteditor,3.6.1.r361_v20100714-0800,"org.eclipse.ui.edit.text.scroll.lineDown",1324630438535
executed,command,org.eclipse.ui.workbench.texteditor,3.6.1.r361_v20100714-0800,"org.eclipse.ui.edit.text.scroll.lineDown",1324630438566
executed,command,org.eclipse.ui.workbench.texteditor,3.6.1.r361_v20100714-0800,"org.eclipse.ui.edit.text.scroll.lineDown",1324630438598
executed,command,org.eclipse.ui.workbench.texteditor,3.6.1.r361_v20100714-0800,"org.eclipse.ui.edit.text.scroll.lineDown",1324630438645
executed,command,org.eclipse.ui.workbench.texteditor,3.6.1.r361_v20100714-0800,"org.eclipse.ui.edit.text.scroll.lineDown",1324630438676
executed,command,org.eclipse.ui.workbench.texteditor,3.6.1.r361_v20100714-0800,"org.eclipse.ui.edit.text.scroll.lineDown",1324630438707
executed,command,org.eclipse.ui.workbench.texteditor,3.6.1.r361_v20100714-0800,"org.eclipse.ui.edit.text.scroll.lineDown",1324630438738
executed,command,org.eclipse.ui.workbench.texteditor,3.6.1.r361_v20100714-0800,"org.eclipse.ui.edit.text.scroll.lineDown",1324630438770
executed,command,org.eclipse.ui.workbench.texteditor,3.6.1.r361_v20100714-0800,"org.eclipse.ui.edit.text.scroll.lineDown",1324630438801
executed,command,org.eclipse.ui.workbench.texteditor,3.6.1.r361_v20100714-0800,"org.eclipse.ui.edit.text.scroll.lineDown",1324630438832
executed,command,org.eclipse.ui.workbench.texteditor,3.6.1.r361_v20100714-0800,"org.eclipse.ui.edit.text.scroll.lineDown",1324630438863
executed,command,org.eclipse.ui.workbench.texteditor,3.6.1.r361_v20100714-0800,"org.eclipse.ui.edit.text.scroll.lineDown",1324630438910
executed,command,org.eclipse.ui.workbench.texteditor,3.6.1.r361_v20100714-0800,"org.eclipse.ui.edit.text.scroll.lineDown",1324630438941
executed,command,org.eclipse.ui.workbench.texteditor,3.6.1.r361_v20100714-0800,"org.eclipse.ui.edit.text.scroll.lineDown",1324630438973
executed,command,org.eclipse.ui.workbench.texteditor,3.6.1.r361_v20100714-0800,"org.eclipse.ui.edit.text.scroll.lineDown",1324630439004
executed,command,org.eclipse.ui.workbench.texteditor,3.6.1.r361_v20100714-0800,"org.eclipse.ui.edit.text.scroll.lineDown",1324630439035
executed,command,org.eclipse.ui.workbench.texteditor,3.6.1.r361_v20100714-0800,"org.eclipse.ui.edit.text.scroll.lineDown",1324630439066
executed,command,org.eclipse.ui.workbench.texteditor,3.6.1.r361_v20100714-0800,"org.eclipse.ui.edit.text.scroll.lineUp",1324630444082
executed,command,org.eclipse.ui.workbench.texteditor,3.6.1.r361_v20100714-0800,"org.eclipse.ui.edit.text.scroll.lineUp",1324630444582
executed,command,org.eclipse.ui.workbench.texteditor,3.6.1.r361_v20100714-0800,"org.eclipse.ui.edit.text.scroll.lineUp",1324630444613
executed,command,org.eclipse.ui.workbench.texteditor,3.6.1.r361_v20100714-0800,"org.eclipse.ui.edit.text.scroll.lineUp",1324630444644
executed,command,org.eclipse.ui.workbench.texteditor,3.6.1.r361_v20100714-0800,"org.eclipse.ui.edit.text.scroll.lineUp",1324630444676
executed,command,org.eclipse.ui.workbench.texteditor,3.6.1.r361_v20100714-0800,"org.eclipse.ui.edit.text.scroll.lineUp",1324630444723
executed,command,org.eclipse.ui.workbench.texteditor,3.6.1.r361_v20100714-0800,"org.eclipse.ui.edit.text.scroll.lineUp",1324630444754
executed,command,org.eclipse.ui.workbench.texteditor,3.6.1.r361_v20100714-0800,"org.eclipse.ui.edit.text.scroll.lineUp",1324630444785
executed,command,org.eclipse.ui.workbench.texteditor,3.6.1.r361_v20100714-0800,"org.eclipse.ui.edit.text.scroll.lineUp",1324630444816
executed,command,org.eclipse.ui.workbench.texteditor,3.6.1.r361_v20100714-0800,"org.eclipse.ui.edit.text.scroll.lineUp",1324630444848
executed,command,org.eclipse.ui.workbench.texteditor,3.6.1.r361_v20100714-0800,"org.eclipse.ui.edit.text.scroll.lineUp",1324630444879
executed,command,org.eclipse.ui.workbench.texteditor,3.6.1.r361_v20100714-0800,"org.eclipse.ui.edit.text.scroll.lineUp",1324630444910
deactivated,workbench,org.eclipse.ui.workbench,3.6.1.M20100826-1330,"",1324630452098
activated,workbench,org.eclipse.ui.workbench,3.6.1.M20100826-1330,"",1324630457754
executed,command,org.eclipse.ui,3.6.1.M20100826-1330,"org.eclipse.ui.edit.cut",1324630461191
executed,command,org.eclipse.ui.workbench.texteditor,3.6.1.r361_v20100714-0800,"org.eclipse.ui.edit.text.goto.lineEnd",1324630465863
executed,command,org.eclipse.ui,3.6.1.M20100826-1330,"org.eclipse.ui.edit.paste",1324630466379
executed,command,org.eclipse.ui.workbench.texteditor,3.6.1.r361_v20100714-0800,"org.eclipse.ui.edit.text.select.wordPrevious",1324630469050
executed,command,org.eclipse.ui.workbench.texteditor,3.6.1.r361_v20100714-0800,"org.eclipse.ui.edit.text.select.wordPrevious",1324630469269
executed,command,org.eclipse.ui,3.6.1.M20100826-1330,"org.eclipse.ui.file.save",1324630471238
deactivated,workbench,org.eclipse.ui.workbench,3.6.1.M20100826-1330,"",1324630471644
activated,workbench,org.eclipse.ui.workbench,3.6.1.M20100826-1330,"",1324630536737
executed,command,org.eclipse.ui,3.6.1.M20100826-1330,"org.eclipse.ui.file.save",1324630543893
executed,command,org.eclipse.ui.workbench.texteditor,3.6.1.r361_v20100714-0800,"org.eclipse.ui.edit.text.goto.lineEnd",1324630545409
executed,command,org.eclipse.ui.workbench.texteditor,3.6.1.r361_v20100714-0800,"org.eclipse.ui.edit.text.select.lineStart",1324630545659
executed,command,org.eclipse.ui.workbench.texteditor,3.6.1.r361_v20100714-0800,"org.eclipse.ui.edit.text.select.lineStart",1324630545846
executed,command,org.eclipse.ui,3.6.1.M20100826-1330,"org.eclipse.ui.edit.delete",1324630546424
executed,command,org.eclipse.ui,3.6.1.M20100826-1330,"org.eclipse.ui.edit.delete",1324630546612
executed,command,org.eclipse.ui.workbench.texteditor,3.6.1.r361_v20100714-0800,"org.eclipse.ui.edit.text.goto.wordNext",1324630547128
executed,command,org.eclipse.ui.workbench.texteditor,3.6.1.r361_v20100714-0800,"org.eclipse.ui.edit.text.goto.wordNext",1324630547737
executed,command,org.eclipse.ui,3.6.1.M20100826-1330,"org.eclipse.ui.edit.delete",1324630548206
executed,command,org.eclipse.ui,3.6.1.M20100826-1330,"org.eclipse.ui.edit.delete",1324630548409
executed,command,org.eclipse.ui,3.6.1.M20100826-1330,"org.eclipse.ui.file.save",1324630549003
deactivated,workbench,org.eclipse.ui.workbench,3.6.1.M20100826-1330,"",1324630552049
activated,workbench,org.eclipse.ui.workbench,3.6.1.M20100826-1330,"",1324630577018
executed,command,org.eclipse.ui,3.6.1.M20100826-1330,"org.eclipse.ui.file.save",1324630586377
executed,command,org.eclipse.ui.workbench.texteditor,3.6.1.r361_v20100714-0800,"org.eclipse.ui.edit.text.goto.lineEnd",1324630608439
executed,command,org.eclipse.ui.workbench.texteditor,3.6.1.r361_v20100714-0800,"org.eclipse.ui.edit.text.select.lineStart",1324630608674
executed,command,org.eclipse.ui.workbench.texteditor,3.6.1.r361_v20100714-0800,"org.eclipse.ui.edit.text.select.lineStart",1324630608845
executed,command,org.eclipse.ui,3.6.1.M20100826-1330,"org.eclipse.ui.file.save",1324630612017
executed,command,org.eclipse.ui.workbench.texteditor,3.6.1.r361_v20100714-0800,"org.eclipse.ui.edit.text.select.wordPrevious",1324630613314
executed,command,org.eclipse.ui.workbench.texteditor,3.6.1.r361_v20100714-0800,"org.eclipse.ui.edit.text.goto.lineEnd",1324630629017
executed,command,org.eclipse.ui,3.6.1.M20100826-1330,"org.eclipse.ui.file.save",1324630636595
executed,command,org.eclipse.wst.sse.ui,1.2.4.v201103231819,"org.eclipse.wst.sse.ui.format.document",1324630639267
executed,command,org.eclipse.ui.workbench.texteditor,3.6.1.r361_v20100714-0800,"org.eclipse.ui.edit.text.goto.lineEnd",1324630643376
executed,command,org.eclipse.ui,3.6.1.M20100826-1330,"org.eclipse.ui.file.save",1324630646158
executed,command,org.eclipse.wst.sse.ui,1.2.4.v201103231819,"org.eclipse.wst.sse.ui.format.document",1324630650392
executed,command,org.eclipse.ui,3.6.1.M20100826-1330,"org.eclipse.ui.edit.delete",1324630653845
executed,command,org.eclipse.ui,3.6.1.M20100826-1330,"org.eclipse.ui.edit.delete",1324630654314
executed,command,org.eclipse.ui.workbench.texteditor,3.6.1.r361_v20100714-0800,"org.eclipse.ui.edit.text.deleteNextWord",1324630654689
executed,command,org.eclipse.ui,3.6.1.M20100826-1330,"org.eclipse.ui.edit.delete",1324630655376
executed,command,org.eclipse.ui,3.6.1.M20100826-1330,"org.eclipse.ui.file.save",1324630656736
executed,command,org.eclipse.wst.sse.ui,1.2.4.v201103231819,"org.eclipse.wst.sse.ui.format.document",1324630657673
executed,command,org.eclipse.ui,3.6.1.M20100826-1330,"org.eclipse.ui.file.save",1324630658970
executed,command,org.eclipse.ui,3.6.1.M20100826-1330,"org.eclipse.ui.edit.delete",1324630666001
executed,command,org.eclipse.ui.workbench.texteditor,3.6.1.r361_v20100714-0800,"org.eclipse.ui.edit.text.goto.lineEnd",1324630666345
executed,command,org.eclipse.ui,3.6.1.M20100826-1330,"org.eclipse.ui.file.save",1324630667829
executed,command,org.eclipse.ui.workbench.texteditor,3.6.1.r361_v20100714-0800,"org.eclipse.ui.edit.text.select.lineStart",1324630687454
executed,command,org.eclipse.ui.workbench.texteditor,3.6.1.r361_v20100714-0800,"org.eclipse.ui.edit.text.select.lineStart",1324630687782
executed,command,org.eclipse.ui.workbench.texteditor,3.6.1.r361_v20100714-0800,"org.eclipse.ui.edit.text.goto.lineEnd",1324630689829
executed,command,org.eclipse.ui.workbench.texteditor,3.6.1.r361_v20100714-0800,"org.eclipse.ui.edit.text.select.lineStart",1324630690423
executed,command,org.eclipse.ui.workbench.texteditor,3.6.1.r361_v20100714-0800,"org.eclipse.ui.edit.text.select.lineStart",1324630690626
executed,command,org.eclipse.ui,3.6.1.M20100826-1330,"org.eclipse.ui.edit.cut",1324630692454
executed,command,org.eclipse.ui.workbench.texteditor,3.6.1.r361_v20100714-0800,"org.eclipse.ui.edit.text.goto.lineEnd",1324630694016
executed,command,org.eclipse.ui.workbench.texteditor,3.6.1.r361_v20100714-0800,"org.eclipse.ui.edit.text.select.lineStart",1324630694251
executed,command,org.eclipse.ui,3.6.1.M20100826-1330,"org.eclipse.ui.edit.paste",1324630694985
executed,command,org.eclipse.ui,3.6.1.M20100826-1330,"org.eclipse.ui.file.save",1324630695501
executed,command,org.eclipse.ui.workbench.texteditor,3.6.1.r361_v20100714-0800,"org.eclipse.ui.edit.text.goto.lineEnd",1324630697563
deactivated,workbench,org.eclipse.ui.workbench,3.6.1.M20100826-1330,"",1324630701704
activated,workbench,org.eclipse.ui.workbench,3.6.1.M20100826-1330,"",1324630715344
deactivated,workbench,org.eclipse.ui.workbench,3.6.1.M20100826-1330,"",1324630726156
activated,workbench,org.eclipse.ui.workbench,3.6.1.M20100826-1330,"",1324630737344
deactivated,workbench,org.eclipse.ui.workbench,3.6.1.M20100826-1330,"",1324630739000
activated,workbench,org.eclipse.ui.workbench,3.6.1.M20100826-1330,"",1324630795327
deactivated,workbench,org.eclipse.ui.workbench,3.6.1.M20100826-1330,"",1324630801343
activated,workbench,org.eclipse.ui.workbench,3.6.1.M20100826-1330,"",1324630823062
deactivated,workbench,org.eclipse.ui.workbench,3.6.1.M20100826-1330,"",1324630824186
activated,workbench,org.eclipse.ui.workbench,3.6.1.M20100826-1330,"",1324630855170
deactivated,workbench,org.eclipse.ui.workbench,3.6.1.M20100826-1330,"",1324630863327
activated,workbench,org.eclipse.ui.workbench,3.6.1.M20100826-1330,"",1324630929326
deactivated,workbench,org.eclipse.ui.workbench,3.6.1.M20100826-1330,"",1324630931716
activated,workbench,org.eclipse.ui.workbench,3.6.1.M20100826-1330,"",1324630933560
deactivated,workbench,org.eclipse.ui.workbench,3.6.1.M20100826-1330,"",1324630935060
deactivated,workbench,org.eclipse.ui.workbench,3.6.1.M20100826-1330,"",1324630939888
deactivated,workbench,org.eclipse.ui.workbench,3.6.1.M20100826-1330,"",1324630940763
deactivated,workbench,org.eclipse.ui.workbench,3.6.1.M20100826-1330,"",1324630944029
activated,workbench,org.eclipse.ui.workbench,3.6.1.M20100826-1330,"",1324630947060
deactivated,workbench,org.eclipse.ui.workbench,3.6.1.M20100826-1330,"",1324630949435
activated,workbench,org.eclipse.ui.workbench,3.6.1.M20100826-1330,"",1324630965903
deactivated,workbench,org.eclipse.ui.workbench,3.6.1.M20100826-1330,"",1324630967810
activated,workbench,org.eclipse.ui.workbench,3.6.1.M20100826-1330,"",1324631034246
deactivated,workbench,org.eclipse.ui.workbench,3.6.1.M20100826-1330,"",1324631038074
activated,workbench,org.eclipse.ui.workbench,3.6.1.M20100826-1330,"",1324631203307
deactivated,workbench,org.eclipse.ui.workbench,3.6.1.M20100826-1330,"",1324631205025
activated,workbench,org.eclipse.ui.workbench,3.6.1.M20100826-1330,"",1324631227525
deactivated,workbench,org.eclipse.ui.workbench,3.6.1.M20100826-1330,"",1324631232728
activated,workbench,org.eclipse.ui.workbench,3.6.1.M20100826-1330,"",1324631232728
deactivated,workbench,org.eclipse.ui.workbench,3.6.1.M20100826-1330,"",1324631232822
activated,workbench,org.eclipse.ui.workbench,3.6.1.M20100826-1330,"",1324631294462
executed,command,org.eclipse.ui,3.6.1.M20100826-1330,"org.eclipse.ui.edit.paste",1324631298852
executed,command,org.eclipse.ui.workbench.texteditor,3.6.1.r361_v20100714-0800,"org.eclipse.ui.edit.text.goto.lineStart",1324631300462
deactivated,workbench,org.eclipse.ui.workbench,3.6.1.M20100826-1330,"",1324631301524
activated,workbench,org.eclipse.ui.workbench,3.6.1.M20100826-1330,"",1324631307727
executed,command,org.eclipse.ui,3.6.1.M20100826-1330,"org.eclipse.ui.edit.paste",1324631310743
executed,command,org.eclipse.ui,3.6.1.M20100826-1330,"org.eclipse.ui.file.save",1324631311555
deactivated,workbench,org.eclipse.ui.workbench,3.6.1.M20100826-1330,"",1324631312758
activated,workbench,org.eclipse.ui.workbench,3.6.1.M20100826-1330,"",1324631320790
executed,command,org.eclipse.ui,3.6.1.M20100826-1330,"org.eclipse.ui.file.save",1324631327196
deactivated,workbench,org.eclipse.ui.workbench,3.6.1.M20100826-1330,"",1324631328149
activated,workbench,org.eclipse.ui.workbench,3.6.1.M20100826-1330,"",1324631337524
executed,command,org.eclipse.ui,3.6.1.M20100826-1330,"org.eclipse.ui.edit.paste",1324631340539
executed,command,org.eclipse.ui,3.6.1.M20100826-1330,"org.eclipse.ui.file.save",1324631343039
deactivated,workbench,org.eclipse.ui.workbench,3.6.1.M20100826-1330,"",1324631350805
activated,workbench,org.eclipse.ui.workbench,3.6.1.M20100826-1330,"",1324631356008
deactivated,workbench,org.eclipse.ui.workbench,3.6.1.M20100826-1330,"",1324631357555
activated,workbench,org.eclipse.ui.workbench,3.6.1.M20100826-1330,"",1324631358398
deactivated,workbench,org.eclipse.ui.workbench,3.6.1.M20100826-1330,"",1324631361383
activated,workbench,org.eclipse.ui.workbench,3.6.1.M20100826-1330,"",1324631553521
executed,command,org.eclipse.ui,3.6.1.M20100826-1330,"org.eclipse.ui.file.save",1324631556505
deactivated,workbench,org.eclipse.ui.workbench,3.6.1.M20100826-1330,"",1324631557427
activated,workbench,org.eclipse.ui.workbench,3.6.1.M20100826-1330,"",1324631571802
executed,command,org.eclipse.ui,3.6.1.M20100826-1330,"org.eclipse.ui.edit.cut",1324631577911
executed,command,org.eclipse.ui,3.6.1.M20100826-1330,"org.eclipse.ui.file.save",1324631578614
deactivated,workbench,org.eclipse.ui.workbench,3.6.1.M20100826-1330,"",1324631579083
activated,workbench,org.eclipse.ui.workbench,3.6.1.M20100826-1330,"",1324631758909
executed,command,org.eclipse.ui,3.6.1.M20100826-1330,"org.eclipse.ui.edit.paste",1324631760909
executed,command,org.eclipse.ui,3.6.1.M20100826-1330,"org.eclipse.ui.file.save",1324631761784
executed,command,org.eclipse.ui,3.6.1.M20100826-1330,"org.eclipse.ui.edit.cut",1324631764784
executed,command,org.eclipse.ui,3.6.1.M20100826-1330,"org.eclipse.ui.file.save",1324631765346
executed,command,org.eclipse.ui,3.6.1.M20100826-1330,"org.eclipse.ui.file.save",1324631768799
deactivated,workbench,org.eclipse.ui.workbench,3.6.1.M20100826-1330,"",1324631770049
activated,workbench,org.eclipse.ui.workbench,3.6.1.M20100826-1330,"",1324631782190
executed,command,org.eclipse.ui,3.6.1.M20100826-1330,"org.eclipse.ui.file.save",1324631787612
deactivated,workbench,org.eclipse.ui.workbench,3.6.1.M20100826-1330,"",1324631788002
activated,workbench,org.eclipse.ui.workbench,3.6.1.M20100826-1330,"",1324631805002
executed,command,org.eclipse.ui.workbench.texteditor,3.6.1.r361_v20100714-0800,"org.eclipse.ui.edit.text.select.wordNext",1324631806690
executed,command,org.eclipse.ui,3.6.1.M20100826-1330,"org.eclipse.ui.file.save",1324631807783
deactivated,workbench,org.eclipse.ui.workbench,3.6.1.M20100826-1330,"",1324631808424
activated,workbench,org.eclipse.ui.workbench,3.6.1.M20100826-1330,"",1324631811439
executed,command,org.eclipse.ui.workbench.texteditor,3.6.1.r361_v20100714-0800,"org.eclipse.ui.edit.text.goto.wordPrevious",1324631812549
executed,command,org.eclipse.ui.workbench.texteditor,3.6.1.r361_v20100714-0800,"org.eclipse.ui.edit.text.goto.wordPrevious",1324631812736
executed,command,org.eclipse.ui.workbench.texteditor,3.6.1.r361_v20100714-0800,"org.eclipse.ui.edit.text.goto.wordPrevious",1324631812908
executed,command,org.eclipse.ui.workbench.texteditor,3.6.1.r361_v20100714-0800,"org.eclipse.ui.edit.text.goto.wordPrevious",1324631813096
executed,command,org.eclipse.ui.workbench.texteditor,3.6.1.r361_v20100714-0800,"org.eclipse.ui.edit.text.goto.wordPrevious",1324631813283
executed,command,org.eclipse.ui.workbench.texteditor,3.6.1.r361_v20100714-0800,"org.eclipse.ui.edit.text.goto.wordPrevious",1324631813502
executed,command,org.eclipse.ui.workbench.texteditor,3.6.1.r361_v20100714-0800,"org.eclipse.ui.edit.text.goto.wordNext",1324631813830
executed,command,org.eclipse.ui.workbench.texteditor,3.6.1.r361_v20100714-0800,"org.eclipse.ui.edit.text.select.wordPrevious",1324631814080
executed,command,org.eclipse.ui.workbench.texteditor,3.6.1.r361_v20100714-0800,"org.eclipse.ui.edit.text.select.wordPrevious",1324631814268
executed,command,org.eclipse.ui.workbench.texteditor,3.6.1.r361_v20100714-0800,"org.eclipse.ui.edit.text.select.wordPrevious",1324631814455
executed,command,org.eclipse.ui.workbench.texteditor,3.6.1.r361_v20100714-0800,"org.eclipse.ui.edit.text.select.wordPrevious",1324631814705
executed,command,org.eclipse.ui,3.6.1.M20100826-1330,"org.eclipse.ui.edit.delete",1324631815143
executed,command,org.eclipse.ui,3.6.1.M20100826-1330,"org.eclipse.ui.file.save",1324631815689
deactivated,workbench,org.eclipse.ui.workbench,3.6.1.M20100826-1330,"",1324631816143
activated,workbench,org.eclipse.ui.workbench,3.6.1.M20100826-1330,"",1324631821408
executed,command,org.eclipse.ui,3.6.1.M20100826-1330,"org.eclipse.ui.edit.undo",1324631823549
executed,command,org.eclipse.ui,3.6.1.M20100826-1330,"org.eclipse.ui.file.save",1324631824361
deactivated,workbench,org.eclipse.ui.workbench,3.6.1.M20100826-1330,"",1324631825658
activated,workbench,org.eclipse.ui.workbench,3.6.1.M20100826-1330,"",1324631827767
executed,command,org.eclipse.ui.workbench.texteditor,3.6.1.r361_v20100714-0800,"org.eclipse.ui.edit.text.select.wordNext",1324631830595
executed,command,org.eclipse.ui,3.6.1.M20100826-1330,"org.eclipse.ui.file.save",1324631834158
deactivated,workbench,org.eclipse.ui.workbench,3.6.1.M20100826-1330,"",1324631834580
activated,workbench,org.eclipse.ui.workbench,3.6.1.M20100826-1330,"",1324631839923
executed,command,org.eclipse.ui,3.6.1.M20100826-1330,"org.eclipse.ui.edit.undo",1324631841533
executed,command,org.eclipse.ui,3.6.1.M20100826-1330,"org.eclipse.ui.edit.undo",1324631842189
executed,command,org.eclipse.ui,3.6.1.M20100826-1330,"org.eclipse.ui.edit.undo",1324631842548
executed,command,org.eclipse.ui,3.6.1.M20100826-1330,"org.eclipse.ui.edit.undo",1324631842939
executed,command,org.eclipse.ui,3.6.1.M20100826-1330,"org.eclipse.ui.edit.undo",1324631843142
executed,command,org.eclipse.ui,3.6.1.M20100826-1330,"org.eclipse.ui.edit.undo",1324631843345
executed,command,org.eclipse.ui,3.6.1.M20100826-1330,"org.eclipse.ui.edit.undo",1324631843689
executed,command,org.eclipse.ui,3.6.1.M20100826-1330,"org.eclipse.ui.edit.undo",1324631843892
executed,command,org.eclipse.ui,3.6.1.M20100826-1330,"org.eclipse.ui.edit.undo",1324631844127
executed,command,org.eclipse.ui,3.6.1.M20100826-1330,"org.eclipse.ui.edit.undo",1324631848033
executed,command,org.eclipse.ui,3.6.1.M20100826-1330,"org.eclipse.ui.edit.undo",1324631848470
executed,command,org.eclipse.ui,3.6.1.M20100826-1330,"org.eclipse.ui.file.save",1324631849689
executed,command,org.eclipse.ui,3.6.1.M20100826-1330,"org.eclipse.ui.file.save",1324631856470
deactivated,workbench,org.eclipse.ui.workbench,3.6.1.M20100826-1330,"",1324631857033
activated,workbench,org.eclipse.ui.workbench,3.6.1.M20100826-1330,"",1324631896626
executed,command,org.eclipse.ui,3.6.1.M20100826-1330,"org.eclipse.ui.edit.cut",1324631903735
executed,command,org.eclipse.ui,3.6.1.M20100826-1330,"org.eclipse.ui.file.save",1324631904751
deactivated,workbench,org.eclipse.ui.workbench,3.6.1.M20100826-1330,"",1324631905391
activated,workbench,org.eclipse.ui.workbench,3.6.1.M20100826-1330,"",1324631908360
executed,command,org.eclipse.ui,3.6.1.M20100826-1330,"org.eclipse.ui.edit.undo",1324631926641
executed,command,org.eclipse.ui,3.6.1.M20100826-1330,"org.eclipse.ui.file.save",1324631929500
executed,command,org.eclipse.ui,3.6.1.M20100826-1330,"org.eclipse.ui.file.save",1324631931094
deactivated,workbench,org.eclipse.ui.workbench,3.6.1.M20100826-1330,"",1324631931563
activated,workbench,org.eclipse.ui.workbench,3.6.1.M20100826-1330,"",1324631964141
executed,command,org.eclipse.ui,3.6.1.M20100826-1330,"org.eclipse.ui.file.save",1324631979594
deactivated,workbench,org.eclipse.ui.workbench,3.6.1.M20100826-1330,"",1324631980015
activated,workbench,org.eclipse.ui.workbench,3.6.1.M20100826-1330,"",1324631985469
executed,command,org.eclipse.ui,3.6.1.M20100826-1330,"org.eclipse.ui.edit.undo",1324631987625
executed,command,org.eclipse.ui,3.6.1.M20100826-1330,"org.eclipse.ui.edit.undo",1324631987968
